module cache_example

go 1.21.1

require xorm.io/xorm v1.3.3

require (
	github.com/goccy/go-json v0.8.1 // indirect
	github.com/golang/snappy v0.0.4 // indirect
	github.com/json-iterator/go v1.1.12 // indirect
	github.com/modern-go/concurrent v0.0.0-20180228061459-e0a39a4cb421 // indirect
	github.com/modern-go/reflect2 v1.0.2 // indirect
	github.com/syndtr/goleveldb v1.0.0 // indirect
	golang.org/x/net v0.17.0 // indirect
	golang.org/x/sys v0.13.0 // indirect
	xorm.io/builder v0.3.11-0.20220531020008-1bd24a7dc978 // indirect
)
